{
  "project_info": {
    "project_number": "459757438970",
    "firebase_url": "https://mbsh-9e6e7-default-rtdb.firebaseio.com",
    "project_id": "mbsh-9e6e7",
    "storage_bucket": "mbsh-9e6e7.appspot.com"
  },
  "client": [
    {
      "client_info": {
        "mobilesdk_app_id": "1:459757438970:android:a2e180ee6f4e025cc38643",
        "android_client_info": {
          "package_name": "com.MakemyBeauty.makemybeauty"
        }
      },
      "oauth_client": [
        {
          "client_id": "459757438970-488qtdvueqkvribu1vepmdrhunfa8bnt.apps.googleusercontent.com",
          "client_type": 3
        }
      ],
      "api_key": [
        {
          "current_key": "AIzaSyA2f6X3NK6SH02BUlSK5D5Z2tLLRoiZrAg"
        }
      ],
      "services": {
        "appinvite_service": {
          "other_platform_oauth_client": [
            {
              "client_id": "459757438970-488qtdvueqkvribu1vepmdrhunfa8bnt.apps.googleusercontent.com",
              "client_type": 3
            }
          ]
        }
      }
    },
    {
      "client_info": {
        "mobilesdk_app_id": "1:459757438970:android:6c22a7b190b82505c38643",
        "android_client_info": {
          "package_name": "com.mybeautysalon.mybeautysaloon"
        }
      },
      "oauth_client": [
        {
          "client_id": "459757438970-488qtdvueqkvribu1vepmdrhunfa8bnt.apps.googleusercontent.com",
          "client_type": 3
        }
      ],
      "api_key": [
        {
          "current_key": "AIzaSyA2f6X3NK6SH02BUlSK5D5Z2tLLRoiZrAg"
        }
      ],
      "services": {
        "appinvite_service": {
          "other_platform_oauth_client": [
            {
              "client_id": "459757438970-488qtdvueqkvribu1vepmdrhunfa8bnt.apps.googleusercontent.com",
              "client_type": 3
            }
          ]
        }
      }
    }
  ],
  "configuration_version": "1"
}